{
    "id": "a289eed2-a154-447d-9a70-eddc2f0c8e28",
    "schema": "https://metadata.datadrivendiscovery.org/schemas/v0/pipeline.json",
    "created": "2021-10-26T04:25:18.979955Z",
    "inputs": [
        {
            "name": "inputs"
        }
    ],
    "outputs": [
        {
            "data": "steps.8.produce",
            "name": "output"
        }
    ],
    "steps": [
        {
            "type": "PRIMITIVE",
            "primitive": {
                "id": "f31f8c1f-d1c5-43e5-a4b2-2ae4a761ef2e",
                "version": "0.2.0",
                "python_path": "d3m.primitives.data_transformation.denormalize.Common",
                "name": "Denormalize datasets"
            },
            "arguments": {
                "inputs": {
                    "type": "CONTAINER",
                    "data": "inputs.0"
                }
            },
            "outputs": [
                {
                    "id": "produce"
                }
            ]
        },
        {
            "type": "PRIMITIVE",
            "primitive": {
                "id": "4b42ce1e-9b98-4a25-b68e-fad13311eb65",
                "version": "0.3.0",
                "python_path": "d3m.primitives.data_transformation.dataset_to_dataframe.Common",
                "name": "Extract a DataFrame from a Dataset"
            },
            "arguments": {
                "inputs": {
                    "type": "CONTAINER",
                    "data": "steps.0.produce"
                }
            },
            "outputs": [
                {
                    "id": "produce"
                }
            ]
        },
        {
            "type": "PRIMITIVE",
            "primitive": {
                "id": "77d20419-aeb6-44f9-8e63-349ea5b654f7",
                "version": "0.7.0",
                "python_path": "d3m.primitives.data_transformation.satellite_image_loader.DistilSatelliteImageLoader",
                "name": "Columns satellite image loader"
            },
            "arguments": {
                "inputs": {
                    "type": "CONTAINER",
                    "data": "steps.1.produce"
                }
            },
            "outputs": [
                {
                    "id": "produce"
                }
            ],
            "hyperparams": {
                "return_result": {
                    "type": "VALUE",
                    "data": "replace"
                },
                "n_jobs": {
                    "type": "VALUE",
                    "data": -1
                }
            }
        },
        {
            "type": "PRIMITIVE",
            "primitive": {
                "id": "e8e78214-9770-4c26-9eae-a45bd0ede91a",
                "version": "0.7.0",
                "python_path": "d3m.primitives.data_transformation.column_parser.DistilColumnParser",
                "name": "Column Parser"
            },
            "arguments": {
                "inputs": {
                    "type": "CONTAINER",
                    "data": "steps.2.produce"
                }
            },
            "outputs": [
                {
                    "id": "produce"
                }
            ],
            "hyperparams": {
                "parsing_semantics": {
                    "type": "VALUE",
                    "data": [
                        "http://schema.org/Integer",
                        "http://schema.org/Float",
                        "https://metadata.datadrivendiscovery.org/types/FloatVector"
                    ]
                }
            }
        },
        {
            "type": "PRIMITIVE",
            "primitive": {
                "id": "4503a4c6-42f7-45a1-a1d4-ed69699cf5e1",
                "version": "0.4.0",
                "python_path": "d3m.primitives.data_transformation.extract_columns_by_semantic_types.Common",
                "name": "Extracts columns by semantic type"
            },
            "arguments": {
                "inputs": {
                    "type": "CONTAINER",
                    "data": "steps.3.produce"
                }
            },
            "outputs": [
                {
                    "id": "produce"
                }
            ],
            "hyperparams": {
                "semantic_types": {
                    "type": "VALUE",
                    "data": [
                        "https://metadata.datadrivendiscovery.org/types/LocationPolygon"
                    ]
                }
            }
        },
        {
            "type": "PRIMITIVE",
            "primitive": {
                "id": "4503a4c6-42f7-45a1-a1d4-ed69699cf5e1",
                "version": "0.4.0",
                "python_path": "d3m.primitives.data_transformation.extract_columns_by_semantic_types.Common",
                "name": "Extracts columns by semantic type"
            },
            "arguments": {
                "inputs": {
                    "type": "CONTAINER",
                    "data": "steps.3.produce"
                }
            },
            "outputs": [
                {
                    "id": "produce"
                }
            ],
            "hyperparams": {
                "semantic_types": {
                    "type": "VALUE",
                    "data": [
                        "https://metadata.datadrivendiscovery.org/types/Target",
                        "https://metadata.datadrivendiscovery.org/types/TrueTarget"
                    ]
                }
            }
        },
        {
            "type": "PRIMITIVE",
            "primitive": {
                "id": "67f53b00-f936-4bb4-873e-4698c4aaa37f",
                "version": "0.7.0",
                "python_path": "d3m.primitives.data_transformation.list_to_dataframe.DistilListEncoder",
                "name": "List encoder"
            },
            "arguments": {
                "inputs": {
                    "type": "CONTAINER",
                    "data": "steps.4.produce"
                }
            },
            "outputs": [
                {
                    "id": "produce"
                }
            ]
        },
        {
            "type": "PRIMITIVE",
            "primitive": {
                "id": "10d21bbe-9c58-4dc1-8f71-2b3834b71a5e",
                "version": "0.7.0",
                "python_path": "d3m.primitives.classification.linear_svc.DistilRankedLinearSVC",
                "name": "DistilRankedLinearSVC"
            },
            "arguments": {
                "inputs": {
                    "type": "CONTAINER",
                    "data": "steps.6.produce"
                },
                "outputs": {
                    "type": "CONTAINER",
                    "data": "steps.5.produce"
                }
            },
            "outputs": [
                {
                    "id": "produce"
                }
            ],
            "hyperparams": {
                "scaling": {
                    "type": "VALUE",
                    "data": "unit_norm"
                },
                "rank_confidences": {
                    "type": "VALUE",
                    "data": true
                },
                "confidences": {
                    "type": "VALUE",
                    "data": false
                },
                "calibrate": {
                    "type": "VALUE",
                    "data": true
                },
                "pos_label": {
                    "type": "VALUE",
                    "data": null
                }
            }
        },
        {
            "type": "PRIMITIVE",
            "primitive": {
                "id": "8d38b340-f83f-4877-baaa-162f8e551736",
                "version": "0.3.0",
                "python_path": "d3m.primitives.data_transformation.construct_predictions.Common",
                "name": "Construct pipeline predictions output"
            },
            "arguments": {
                "inputs": {
                    "type": "CONTAINER",
                    "data": "steps.7.produce"
                },
                "reference": {
                    "type": "CONTAINER",
                    "data": "steps.3.produce"
                }
            },
            "outputs": [
                {
                    "id": "produce"
                }
            ],
            "hyperparams": {
                "use_columns": {
                    "type": "VALUE",
                    "data": [
                        0,
                        1
                    ]
                }
            }
        }
    ],
    "digest": "9c81846e3cd408114b3586be02d05a71fed8b0cbdfbb1d7f979e34d73180fa10"
}
