{
    "id": "f30da64e-9cb0-4902-ae03-b888efd69fab",
    "schema": "https://metadata.datadrivendiscovery.org/schemas/v0/pipeline.json",
    "created": "2021-10-22T04:19:28.516535Z",
    "inputs": [
        {
            "name": "inputs"
        }
    ],
    "outputs": [
        {
            "data": "steps.1.produce",
            "name": "output"
        }
    ],
    "steps": [
        {
            "type": "PRIMITIVE",
            "primitive": {
                "id": "4acc81e5-4b9c-443e-a72a-18dd9a7dcc3b",
                "version": "0.7.0",
                "python_path": "d3m.primitives.data_transformation.load_edgelist.DistilEdgeListLoader",
                "name": "Load edgelist into a parseable object"
            },
            "arguments": {
                "inputs": {
                    "type": "CONTAINER",
                    "data": "inputs.0"
                }
            },
            "outputs": [
                {
                    "id": "produce"
                },
                {
                    "id": "produce_target"
                }
            ]
        },
        {
            "type": "PRIMITIVE",
            "primitive": {
                "id": "0130828c-1ac0-47a9-a167-f05bae5a3146",
                "version": "0.7.0",
                "python_path": "d3m.primitives.vertex_nomination.seeded_graph_matching.DistilVertexNomination",
                "name": "VertexNomination"
            },
            "arguments": {
                "inputs": {
                    "type": "CONTAINER",
                    "data": "steps.0.produce"
                },
                "outputs": {
                    "type": "CONTAINER",
                    "data": "steps.0.produce_target"
                }
            },
            "outputs": [
                {
                    "id": "produce"
                }
            ],
            "hyperparams": {
                "metric": {
                    "type": "VALUE",
                    "data": "accuracy"
                }
            }
        }
    ],
    "digest": "04dba3f8e316a1b7668c5c50c30e40993b04e63075a2cb0d5179048e06e8e389"
}
