{
    "id": "dsbox-featurizer-image-resnet50",
    "version": "1.5.4",
    "name": "DSBox Image Featurizer ResNet50",
    "description": "Image Feature Generation using pretrained deep neural network ResNet50\n\nParameters\n----------\n_layer_index : int, default: 0, domain: range(11)\n    Layer of the network to use to generate features. Smaller\n    indices are closer to the output layers of the network.\n\n_resize_data : Boolean, default: True, domain: {True, False}\n    If True resize images to 299x299.",
    "python_path": "d3m.primitives.feature_extraction.resnet50_image_feature.DSBOX",
    "primitive_family": "FEATURE_EXTRACTION",
    "algorithm_types": [
        "FEEDFORWARD_NEURAL_NETWORK"
    ],
    "keywords": [
        "image",
        "featurization",
        "resnet50"
    ],
    "source": {
        "name": "ISI",
        "contact": "mailto:kyao@isi.edu",
        "uris": [
            "https://gitlab.com/datadrivendiscovery/contrib/dsbox-primitives.git"
        ]
    },
    "installation": [
        {
            "type": "PIP",
            "package_uri": "git+https://gitlab.com/datadrivendiscovery/contrib/dsbox-primitives.git@2f4cb9adfe548d91ad973dc201f064cbda6f33e0#egg=dsbox-primitives"
        },
        {
            "type": "FILE",
            "key": "keras:resnet50_weights_tf_dim_ordering_tf_kernels.h5",
            "file_uri": "https://github.com/fchollet/deep-learning-models/releases/download/v0.2/resnet50_weights_tf_dim_ordering_tf_kernels.h5",
            "file_digest": "bdc6c9f787f9f51dffd50d895f86e469cc0eb8ba95fd61f0801b1a264acb4819"
        },
        {
            "type": "FILE",
            "key": "tensorflow.keras:resnet50_weights_tf_dim_ordering_tf_kernels.h5",
            "file_uri": "https://github.com/keras-team/keras-applications/releases/download/resnet/resnet50_weights_tf_dim_ordering_tf_kernels.h5",
            "file_digest": "7011d39ea4f61f4ddb8da99c4addf3fae4209bfda7828adb4698b16283258fbe"
        }
    ],
    "precondition": [],
    "hyperparms_to_tune": [],
    "schema": "https://metadata.datadrivendiscovery.org/schemas/v0/primitive.json",
    "original_python_path": "dsbox.datapreprocessing.featurizer.image.net_image_feature.ResNet50ImageFeature",
    "primitive_code": {
        "class_type_arguments": {
            "Inputs": "d3m.container.list.List",
            "Outputs": "d3m.container.pandas.DataFrame",
            "Hyperparams": "dsbox.datapreprocessing.featurizer.image.net_image_feature.ResNet50Hyperparams",
            "Params": "NoneType"
        },
        "interfaces_version": "2021.11.25.dev0",
        "interfaces": [
            "featurization.FeaturizationTransformerPrimitiveBase",
            "transformer.TransformerPrimitiveBase",
            "base.PrimitiveBase"
        ],
        "hyperparams": {
            "layer_index": {
                "type": "d3m.metadata.hyperparams.UniformInt",
                "default": 0,
                "structural_type": "int",
                "semantic_types": [
                    "http://schema.org/Integer",
                    "https://metadata.datadrivendiscovery.org/types/TuningParameter"
                ],
                "description": "Specify the layer of the neural network to use for features. Lower numbered layers correspond to higher-level abstract features. The number of features by layer index are [2048, 100352, 25088, 25088, 100352, 25088, 25088, 100352, 25088, 25088, 200704].",
                "lower": 0,
                "upper": 11,
                "lower_inclusive": true,
                "upper_inclusive": false
            },
            "generate_metadata": {
                "type": "d3m.metadata.hyperparams.UniformBool",
                "default": true,
                "structural_type": "bool",
                "semantic_types": [
                    "http://schema.org/Boolean",
                    "https://metadata.datadrivendiscovery.org/types/ControlParameter"
                ],
                "description": "A control parameter to set whether to generate metada after the feature extraction. It will be very slow if the columns length is very large. For the default condition, it will turn off to accelerate the program running."
            }
        },
        "arguments": {
            "hyperparams": {
                "type": "dsbox.datapreprocessing.featurizer.image.net_image_feature.ResNet50Hyperparams",
                "kind": "RUNTIME"
            },
            "volumes": {
                "type": "typing.Union[NoneType, typing.Dict[str, str]]",
                "kind": "RUNTIME",
                "default": null
            },
            "timeout": {
                "type": "typing.Union[NoneType, float]",
                "kind": "RUNTIME",
                "default": null
            },
            "iterations": {
                "type": "typing.Union[NoneType, int]",
                "kind": "RUNTIME",
                "default": null
            },
            "produce_methods": {
                "type": "typing.Sequence[str]",
                "kind": "RUNTIME"
            },
            "inputs": {
                "type": "d3m.container.list.List",
                "kind": "PIPELINE"
            },
            "params": {
                "type": "NoneType",
                "kind": "RUNTIME"
            }
        },
        "class_methods": {},
        "instance_methods": {
            "__init__": {
                "kind": "OTHER",
                "arguments": [
                    "hyperparams",
                    "volumes"
                ],
                "returns": "NoneType"
            },
            "fit": {
                "kind": "OTHER",
                "arguments": [
                    "timeout",
                    "iterations"
                ],
                "returns": "d3m.primitive_interfaces.base.CallResult[NoneType]",
                "description": "A noop.\n\nParameters\n----------\ntimeout:\n    A maximum time this primitive should be fitting during this method call, in seconds.\niterations:\n    How many of internal iterations should the primitive do.\n\nReturns\n-------\nA ``CallResult`` with ``None`` value."
            },
            "fit_multi_produce": {
                "kind": "OTHER",
                "arguments": [
                    "produce_methods",
                    "inputs",
                    "timeout",
                    "iterations"
                ],
                "returns": "d3m.primitive_interfaces.base.MultiCallResult",
                "description": "A method calling ``fit`` and after that multiple produce methods at once.\n\nParameters\n----------\nproduce_methods:\n    A list of names of produce methods to call.\ninputs:\n    The inputs given to all produce methods.\ntimeout:\n    A maximum time this primitive should take to both fit the primitive and produce outputs\n    for all produce methods listed in ``produce_methods`` argument, in seconds.\niterations:\n    How many of internal iterations should the primitive do for both fitting and producing\n    outputs of all produce methods.\n\nReturns\n-------\nA dict of values for each produce method wrapped inside ``MultiCallResult``."
            },
            "get_params": {
                "kind": "OTHER",
                "arguments": [],
                "returns": "NoneType",
                "description": "A noop.\n\nReturns\n-------\nAn instance of parameters."
            },
            "multi_produce": {
                "kind": "OTHER",
                "arguments": [
                    "produce_methods",
                    "inputs",
                    "timeout",
                    "iterations"
                ],
                "returns": "d3m.primitive_interfaces.base.MultiCallResult",
                "description": "A method calling multiple produce methods at once.\n\nWhen a primitive has multiple produce methods it is common that they might compute the\nsame internal results for same inputs but return different representations of those results.\nIf caller is interested in multiple of those representations, calling multiple produce\nmethods might lead to recomputing same internal results multiple times. To address this,\nthis method allows primitive author to implement an optimized version which computes\ninternal results only once for multiple calls of produce methods, but return those different\nrepresentations.\n\nIf any additional method arguments are added to primitive's produce method(s), they have\nto be added to this method as well. This method should accept an union of all arguments\naccepted by primitive's produce method(s) and then use them accordingly when computing\nresults. Despite accepting all arguments they can be passed as ``None`` by the caller\nwhen they are not needed by any of the produce methods in ``produce_methods``.\n\nThe default implementation of this method just calls all produce methods listed in\n``produce_methods`` in order and is potentially inefficient.\n\nIf primitive should have been fitted before calling this method, but it has not been,\nprimitive should raise a ``PrimitiveNotFittedError`` exception.\n\nParameters\n----------\nproduce_methods:\n    A list of names of produce methods to call.\ninputs:\n    The inputs given to all produce methods.\ntimeout:\n    A maximum time this primitive should take to produce outputs for all produce methods\n    listed in ``produce_methods`` argument, in seconds.\niterations:\n    How many of internal iterations should the primitive do.\n\nReturns\n-------\nA dict of values for each produce method wrapped inside ``MultiCallResult``."
            },
            "produce": {
                "kind": "PRODUCE",
                "arguments": [
                    "inputs",
                    "timeout",
                    "iterations"
                ],
                "returns": "d3m.primitive_interfaces.base.CallResult[d3m.container.pandas.DataFrame]",
                "singleton": false,
                "inputs_across_samples": [],
                "description": "Apply neural network-based feature extraction to image_tensor\n\nParameters\n----------\ninputs:\n    The inputs of shape [num_inputs, ...].\ntimeout:\n    A maximum time this primitive should take to produce outputs during this method call, in seconds.\niterations:\n    How many of internal iterations should the primitive do.\n\nReturns\n-------\nThe outputs of shape [num_inputs, ...] wrapped inside ``CallResult``."
            },
            "set_params": {
                "kind": "OTHER",
                "arguments": [
                    "params"
                ],
                "returns": "NoneType",
                "description": "A noop.\n\nParameters\n----------\nparams:\n    An instance of parameters."
            },
            "set_training_data": {
                "kind": "OTHER",
                "arguments": [],
                "returns": "NoneType",
                "description": "A noop.\n\nParameters\n----------"
            }
        },
        "class_attributes": {
            "logger": "logging.Logger",
            "metadata": "d3m.metadata.base.PrimitiveMetadata"
        },
        "instance_attributes": {
            "hyperparams": "d3m.metadata.hyperparams.Hyperparams",
            "random_seed": "int",
            "docker_containers": "typing.Dict[str, d3m.primitive_interfaces.base.DockerContainer]",
            "volumes": "typing.Dict[str, str]",
            "temporary_directory": "typing.Union[NoneType, str]"
        }
    },
    "structural_type": "dsbox.datapreprocessing.featurizer.image.net_image_feature.ResNet50ImageFeature",
    "digest": "c45bf31480f69e2f49b1a04ca0f6338eb0e8125e30d814bf488e6ac72049dab6"
}
